%YAML 1.1
%TAG !u! tag:unity3d.com,2011:
--- !u!111 &5939697873137615017
Animation:
  m_ObjectHideFlags: 0
  m_CorrespondingSourceObject: {fileID: 0}
  m_PrefabInstance: {fileID: 0}
  m_PrefabAsset: {fileID: 0}
  m_GameObject: {fileID: 3990769345493056600}
  m_Enabled: 1
  serializedVersion: 3
  m_Animation: {fileID: 7400000, guid: d28f3d9fc76ccd34fa18a183e54a87e7, type: 2}
  m_Animations:
  - {fileID: 7400000, guid: d28f3d9fc76ccd34fa18a183e54a87e7, type: 2}
  m_WrapMode: 0
  m_PlayAutomatically: 1
  m_AnimatePhysics: 0
  m_CullingType: 0
--- !u!1 &4729691764954412026
GameObject:
  m_ObjectHideFlags: 0
  m_CorrespondingSourceObject: {fileID: 0}
  m_PrefabInstance: {fileID: 0}
  m_PrefabAsset: {fileID: 0}
  serializedVersion: 6
  m_Component:
  - component: {fileID: 4729691764954412030}
  - component: {fileID: 4729691764954412029}
  - component: {fileID: 4729691764954412028}
  - component: {fileID: 202625671649080531}
  - component: {fileID: 5755739333825020931}
  - component: {fileID: 3200223650904310182}
  m_Layer: 0
  m_Name: Powerup_Invincibility
  m_TagString: Untagged
  m_Icon: {fileID: 0}
  m_NavMeshLayer: 0
  m_StaticEditorFlags: 0
  m_IsActive: 1
--- !u!4 &4729691764954412030
Transform:
  m_ObjectHideFlags: 0
  m_CorrespondingSourceObject: {fileID: 0}
  m_PrefabInstance: {fileID: 0}
  m_PrefabAsset: {fileID: 0}
  m_GameObject: {fileID: 4729691764954412026}
  m_LocalRotation: {x: 0, y: 0, z: 0, w: 1}
  m_LocalPosition: {x: 5.0436974, y: 3.2093563, z: 0}
  m_LocalScale: {x: 1, y: 1, z: 1}
  m_Children:
  - {fileID: 245907866266398695}
  m_Father: {fileID: 0}
  m_RootOrder: 0
  m_LocalEulerAnglesHint: {x: 0, y: 0, z: 0}
--- !u!212 &4729691764954412029
SpriteRenderer:
  m_ObjectHideFlags: 0
  m_CorrespondingSourceObject: {fileID: 0}
  m_PrefabInstance: {fileID: 0}
  m_PrefabAsset: {fileID: 0}
  m_GameObject: {fileID: 4729691764954412026}
  m_Enabled: 1
  m_CastShadows: 0
  m_ReceiveShadows: 0
  m_DynamicOccludee: 1
  m_MotionVectors: 1
  m_LightProbeUsage: 1
  m_ReflectionProbeUsage: 1
  m_RayTracingMode: 0
  m_RayTraceProcedural: 0
  m_RenderingLayerMask: 1
  m_RendererPriority: 0
  m_Materials:
  - {fileID: 10754, guid: 0000000000000000f000000000000000, type: 0}
  m_StaticBatchInfo:
    firstSubMesh: 0
    subMeshCount: 0
  m_StaticBatchRoot: {fileID: 0}
  m_ProbeAnchor: {fileID: 0}
  m_LightProbeVolumeOverride: {fileID: 0}
  m_ScaleInLightmap: 1
  m_ReceiveGI: 1
  m_PreserveUVs: 0
  m_IgnoreNormalsForChartDetection: 0
  m_ImportantGI: 0
  m_StitchLightmapSeams: 1
  m_SelectedEditorRenderState: 0
  m_MinimumChartSize: 4
  m_AutoUVMaxDistance: 0.5
  m_AutoUVMaxAngle: 89
  m_LightmapParameters: {fileID: 0}
  m_SortingLayerID: 0
  m_SortingLayer: 0
  m_SortingOrder: 2
  m_Sprite: {fileID: 21300000, guid: 52ee7777b297d6a43a2083e4178d0fd9, type: 3}
  m_Color: {r: 1, g: 1, b: 1, a: 1}
  m_FlipX: 0
  m_FlipY: 0
  m_DrawMode: 0
  m_Size: {x: 0.16, y: 0.16}
  m_AdaptiveModeThreshold: 0.5
  m_SpriteTileMode: 0
  m_WasSpriteAssigned: 1
  m_MaskInteraction: 0
  m_SpriteSortPoint: 0
--- !u!114 &4729691764954412028
MonoBehaviour:
  m_ObjectHideFlags: 0
  m_CorrespondingSourceObject: {fileID: 0}
  m_PrefabInstance: {fileID: 0}
  m_PrefabAsset: {fileID: 0}
  m_GameObject: {fileID: 4729691764954412026}
  m_Enabled: 1
  m_EditorHideFlags: 0
  m_Script: {fileID: 11500000, guid: 4a02df40b4c9d1e4e8c5200a113b964b, type: 3}
  m_Name: 
  m_EditorClassIdentifier: 
  _powerups: 0
  _sfxPickupPowerup: {fileID: 3922916328310231538, guid: 9b091b11a16696c48b6b39910615632e, type: 3}
--- !u!114 &202625671649080531
MonoBehaviour:
  m_ObjectHideFlags: 0
  m_CorrespondingSourceObject: {fileID: 0}
  m_PrefabInstance: {fileID: 0}
  m_PrefabAsset: {fileID: 0}
  m_GameObject: {fileID: 4729691764954412026}
  m_Enabled: 1
  m_EditorHideFlags: 0
  m_Script: {fileID: 11500000, guid: 6f5e00f97f7313b429c7602b08e3bdf7, type: 3}
  m_Name: 
  m_EditorClassIdentifier: 
  _meteorSpeed: 1
--- !u!70 &5755739333825020931
CapsuleCollider2D:
  m_ObjectHideFlags: 0
  m_CorrespondingSourceObject: {fileID: 0}
  m_PrefabInstance: {fileID: 0}
  m_PrefabAsset: {fileID: 0}
  m_GameObject: {fileID: 4729691764954412026}
  m_Enabled: 1
  m_Density: 1
  m_Material: {fileID: 0}
  m_IsTrigger: 1
  m_UsedByEffector: 0
  m_UsedByComposite: 0
  m_Offset: {x: 0, y: 0}
  m_Size: {x: 0.22857143, y: 0.22857143}
  m_Direction: 0
--- !u!50 &3200223650904310182
Rigidbody2D:
  serializedVersion: 4
  m_ObjectHideFlags: 0
  m_CorrespondingSourceObject: {fileID: 0}
  m_PrefabInstance: {fileID: 0}
  m_PrefabAsset: {fileID: 0}
  m_GameObject: {fileID: 4729691764954412026}
  m_BodyType: 1
  m_Simulated: 1
  m_UseFullKinematicContacts: 0
  m_UseAutoMass: 0
  m_Mass: 1
  m_LinearDrag: 0
  m_AngularDrag: 0.05
  m_GravityScale: 1
  m_Material: {fileID: 0}
  m_Interpolate: 0
  m_SleepingMode: 1
  m_CollisionDetection: 0
  m_Constraints: 0
--- !u!1001 &1566252282653141027
PrefabInstance:
  m_ObjectHideFlags: 0
  serializedVersion: 2
  m_Modification:
    m_TransformParent: {fileID: 4729691764954412030}
    m_Modifications:
    - target: {fileID: 109761638984635110, guid: a3701d398152c3c4ba80b7b035d334b8, type: 3}
      propertyPath: m_Color.r
      value: 0.7783019
      objectReference: {fileID: 0}
    - target: {fileID: 109761638984635110, guid: a3701d398152c3c4ba80b7b035d334b8, type: 3}
      propertyPath: m_Color.g
      value: 1
      objectReference: {fileID: 0}
    - target: {fileID: 109761638984635110, guid: a3701d398152c3c4ba80b7b035d334b8, type: 3}
      propertyPath: m_Color.b
      value: 0.78203773
      objectReference: {fileID: 0}
    - target: {fileID: 109761638984635110, guid: a3701d398152c3c4ba80b7b035d334b8, type: 3}
      propertyPath: m_SortingOrder
      value: 2
      objectReference: {fileID: 0}
    - target: {fileID: 1645451869229090756, guid: a3701d398152c3c4ba80b7b035d334b8, type: 3}
      propertyPath: m_LocalPosition.x
      value: 0
      objectReference: {fileID: 0}
    - target: {fileID: 1645451869229090756, guid: a3701d398152c3c4ba80b7b035d334b8, type: 3}
      propertyPath: m_LocalPosition.y
      value: 0
      objectReference: {fileID: 0}
    - target: {fileID: 1645451869229090756, guid: a3701d398152c3c4ba80b7b035d334b8, type: 3}
      propertyPath: m_LocalPosition.z
      value: 0
      objectReference: {fileID: 0}
    - target: {fileID: 1645451869229090756, guid: a3701d398152c3c4ba80b7b035d334b8, type: 3}
      propertyPath: m_LocalRotation.x
      value: -0
      objectReference: {fileID: 0}
    - target: {fileID: 1645451869229090756, guid: a3701d398152c3c4ba80b7b035d334b8, type: 3}
      propertyPath: m_LocalRotation.y
      value: -0
      objectReference: {fileID: 0}
    - target: {fileID: 1645451869229090756, guid: a3701d398152c3c4ba80b7b035d334b8, type: 3}
      propertyPath: m_LocalRotation.z
      value: -0
      objectReference: {fileID: 0}
    - target: {fileID: 1645451869229090756, guid: a3701d398152c3c4ba80b7b035d334b8, type: 3}
      propertyPath: m_LocalRotation.w
      value: 1
      objectReference: {fileID: 0}
    - target: {fileID: 1645451869229090756, guid: a3701d398152c3c4ba80b7b035d334b8, type: 3}
      propertyPath: m_RootOrder
      value: 0
      objectReference: {fileID: 0}
    - target: {fileID: 1645451869229090756, guid: a3701d398152c3c4ba80b7b035d334b8, type: 3}
      propertyPath: m_LocalEulerAnglesHint.x
      value: 0
      objectReference: {fileID: 0}
    - target: {fileID: 1645451869229090756, guid: a3701d398152c3c4ba80b7b035d334b8, type: 3}
      propertyPath: m_LocalEulerAnglesHint.y
      value: 0
      objectReference: {fileID: 0}
    - target: {fileID: 1645451869229090756, guid: a3701d398152c3c4ba80b7b035d334b8, type: 3}
      propertyPath: m_LocalEulerAnglesHint.z
      value: 0
      objectReference: {fileID: 0}
    - target: {fileID: 2512583856223081595, guid: a3701d398152c3c4ba80b7b035d334b8, type: 3}
      propertyPath: m_Name
      value: Glow
      objectReference: {fileID: 0}
    m_RemovedComponents: []
  m_SourcePrefab: {fileID: 100100000, guid: a3701d398152c3c4ba80b7b035d334b8, type: 3}
--- !u!1 &3990769345493056600 stripped
GameObject:
  m_CorrespondingSourceObject: {fileID: 2512583856223081595, guid: a3701d398152c3c4ba80b7b035d334b8, type: 3}
  m_PrefabInstance: {fileID: 1566252282653141027}
  m_PrefabAsset: {fileID: 0}
--- !u!4 &245907866266398695 stripped
Transform:
  m_CorrespondingSourceObject: {fileID: 1645451869229090756, guid: a3701d398152c3c4ba80b7b035d334b8, type: 3}
  m_PrefabInstance: {fileID: 1566252282653141027}
  m_PrefabAsset: {fileID: 0}
