%YAML 1.1
%TAG !u! tag:unity3d.com,2011:
--- !u!1001 &2394786011582036213
PrefabInstance:
  m_ObjectHideFlags: 0
  serializedVersion: 2
  m_Modification:
    m_TransformParent: {fileID: 0}
    m_Modifications:
    - target: {fileID: 2201359244811957712, guid: 8dd32bee8c9aff74aa5f2db54a7951c2, type: 3}
      propertyPath: m_Name
      value: Powerup_Blackhole Variant
      objectReference: {fileID: 0}
    - target: {fileID: 2201359244811957716, guid: 8dd32bee8c9aff74aa5f2db54a7951c2, type: 3}
      propertyPath: m_LocalPosition.x
      value: -0.6524539
      objectReference: {fileID: 0}
    - target: {fileID: 2201359244811957716, guid: 8dd32bee8c9aff74aa5f2db54a7951c2, type: 3}
      propertyPath: m_LocalPosition.y
      value: -1.7013237
      objectReference: {fileID: 0}
    - target: {fileID: 2201359244811957716, guid: 8dd32bee8c9aff74aa5f2db54a7951c2, type: 3}
      propertyPath: m_LocalPosition.z
      value: 0
      objectReference: {fileID: 0}
    - target: {fileID: 2201359244811957716, guid: 8dd32bee8c9aff74aa5f2db54a7951c2, type: 3}
      propertyPath: m_LocalRotation.x
      value: 0
      objectReference: {fileID: 0}
    - target: {fileID: 2201359244811957716, guid: 8dd32bee8c9aff74aa5f2db54a7951c2, type: 3}
      propertyPath: m_LocalRotation.y
      value: 0
      objectReference: {fileID: 0}
    - target: {fileID: 2201359244811957716, guid: 8dd32bee8c9aff74aa5f2db54a7951c2, type: 3}
      propertyPath: m_LocalRotation.z
      value: 0
      objectReference: {fileID: 0}
    - target: {fileID: 2201359244811957716, guid: 8dd32bee8c9aff74aa5f2db54a7951c2, type: 3}
      propertyPath: m_LocalRotation.w
      value: 1
      objectReference: {fileID: 0}
    - target: {fileID: 2201359244811957716, guid: 8dd32bee8c9aff74aa5f2db54a7951c2, type: 3}
      propertyPath: m_RootOrder
      value: 0
      objectReference: {fileID: 0}
    - target: {fileID: 2201359244811957716, guid: 8dd32bee8c9aff74aa5f2db54a7951c2, type: 3}
      propertyPath: m_LocalEulerAnglesHint.x
      value: 0
      objectReference: {fileID: 0}
    - target: {fileID: 2201359244811957716, guid: 8dd32bee8c9aff74aa5f2db54a7951c2, type: 3}
      propertyPath: m_LocalEulerAnglesHint.y
      value: 0
      objectReference: {fileID: 0}
    - target: {fileID: 2201359244811957716, guid: 8dd32bee8c9aff74aa5f2db54a7951c2, type: 3}
      propertyPath: m_LocalEulerAnglesHint.z
      value: 0
      objectReference: {fileID: 0}
    - target: {fileID: 2201359244811957718, guid: 8dd32bee8c9aff74aa5f2db54a7951c2, type: 3}
      propertyPath: _powerups
      value: 4
      objectReference: {fileID: 0}
    - target: {fileID: 2201359244811957719, guid: 8dd32bee8c9aff74aa5f2db54a7951c2, type: 3}
      propertyPath: m_Sprite
      value: 
      objectReference: {fileID: 21300000, guid: 93e00a94050ed0248ac5207727915f52, type: 3}
    m_RemovedComponents: []
  m_SourcePrefab: {fileID: 100100000, guid: 8dd32bee8c9aff74aa5f2db54a7951c2, type: 3}
