%YAML 1.1
%TAG !u! tag:unity3d.com,2011:
--- !u!1001 &6846671596230908014
PrefabInstance:
  m_ObjectHideFlags: 0
  serializedVersion: 2
  m_Modification:
    m_TransformParent: {fileID: 0}
    m_Modifications:
    - target: {fileID: 1457338367318145733, guid: 290caf93d9545af4299a165a51c60c2b, type: 3}
      propertyPath: m_Color.r
      value: 1
      objectReference: {fileID: 0}
    - target: {fileID: 1457338367318145733, guid: 290caf93d9545af4299a165a51c60c2b, type: 3}
      propertyPath: m_Color.g
      value: 0.64198893
      objectReference: {fileID: 0}
    - target: {fileID: 1457338367318145733, guid: 290caf93d9545af4299a165a51c60c2b, type: 3}
      propertyPath: m_Color.b
      value: 0.6367924
      objectReference: {fileID: 0}
    - target: {fileID: 1457338367318145733, guid: 290caf93d9545af4299a165a51c60c2b, type: 3}
      propertyPath: m_SortingOrder
      value: 2
      objectReference: {fileID: 0}
    - target: {fileID: 4729691764954412026, guid: 290caf93d9545af4299a165a51c60c2b, type: 3}
      propertyPath: m_Name
      value: Powerup_Heart Variant
      objectReference: {fileID: 0}
    - target: {fileID: 4729691764954412028, guid: 290caf93d9545af4299a165a51c60c2b, type: 3}
      propertyPath: _powerups
      value: 3
      objectReference: {fileID: 0}
    - target: {fileID: 4729691764954412029, guid: 290caf93d9545af4299a165a51c60c2b, type: 3}
      propertyPath: m_Sprite
      value: 
      objectReference: {fileID: 21300000, guid: c5933280122a4514aa23b74b8692d61b, type: 3}
    - target: {fileID: 4729691764954412029, guid: 290caf93d9545af4299a165a51c60c2b, type: 3}
      propertyPath: m_SortingOrder
      value: 2
      objectReference: {fileID: 0}
    - target: {fileID: 4729691764954412030, guid: 290caf93d9545af4299a165a51c60c2b, type: 3}
      propertyPath: m_LocalPosition.x
      value: -0.42688572
      objectReference: {fileID: 0}
    - target: {fileID: 4729691764954412030, guid: 290caf93d9545af4299a165a51c60c2b, type: 3}
      propertyPath: m_LocalPosition.y
      value: -2.0473094
      objectReference: {fileID: 0}
    - target: {fileID: 4729691764954412030, guid: 290caf93d9545af4299a165a51c60c2b, type: 3}
      propertyPath: m_LocalPosition.z
      value: 0
      objectReference: {fileID: 0}
    - target: {fileID: 4729691764954412030, guid: 290caf93d9545af4299a165a51c60c2b, type: 3}
      propertyPath: m_LocalRotation.x
      value: 0
      objectReference: {fileID: 0}
    - target: {fileID: 4729691764954412030, guid: 290caf93d9545af4299a165a51c60c2b, type: 3}
      propertyPath: m_LocalRotation.y
      value: 0
      objectReference: {fileID: 0}
    - target: {fileID: 4729691764954412030, guid: 290caf93d9545af4299a165a51c60c2b, type: 3}
      propertyPath: m_LocalRotation.z
      value: 0
      objectReference: {fileID: 0}
    - target: {fileID: 4729691764954412030, guid: 290caf93d9545af4299a165a51c60c2b, type: 3}
      propertyPath: m_LocalRotation.w
      value: 1
      objectReference: {fileID: 0}
    - target: {fileID: 4729691764954412030, guid: 290caf93d9545af4299a165a51c60c2b, type: 3}
      propertyPath: m_RootOrder
      value: 0
      objectReference: {fileID: 0}
    - target: {fileID: 4729691764954412030, guid: 290caf93d9545af4299a165a51c60c2b, type: 3}
      propertyPath: m_LocalEulerAnglesHint.x
      value: 0
      objectReference: {fileID: 0}
    - target: {fileID: 4729691764954412030, guid: 290caf93d9545af4299a165a51c60c2b, type: 3}
      propertyPath: m_LocalEulerAnglesHint.y
      value: 0
      objectReference: {fileID: 0}
    - target: {fileID: 4729691764954412030, guid: 290caf93d9545af4299a165a51c60c2b, type: 3}
      propertyPath: m_LocalEulerAnglesHint.z
      value: 0
      objectReference: {fileID: 0}
    - target: {fileID: 5755739333825020931, guid: 290caf93d9545af4299a165a51c60c2b, type: 3}
      propertyPath: m_Size.x
      value: 0.66
      objectReference: {fileID: 0}
    m_RemovedComponents: []
  m_SourcePrefab: {fileID: 100100000, guid: 290caf93d9545af4299a165a51c60c2b, type: 3}
