%YAML 1.1
%TAG !u! tag:unity3d.com,2011:
--- !u!1001 &7328434472924659616
PrefabInstance:
  m_ObjectHideFlags: 0
  serializedVersion: 2
  m_Modification:
    m_TransformParent: {fileID: 0}
    m_Modifications:
    - target: {fileID: 9053093336708988601, guid: 25d0e08ecd4f8ef42acbb21c2c297b80, type: 3}
      propertyPath: m_Name
      value: SFX_Explosion
      objectReference: {fileID: 0}
    - target: {fileID: 9053093336708988606, guid: 25d0e08ecd4f8ef42acbb21c2c297b80, type: 3}
      propertyPath: m_LocalPosition.x
      value: 636.6977
      objectReference: {fileID: 0}
    - target: {fileID: 9053093336708988606, guid: 25d0e08ecd4f8ef42acbb21c2c297b80, type: 3}
      propertyPath: m_LocalPosition.y
      value: 542.92224
      objectReference: {fileID: 0}
    - target: {fileID: 9053093336708988606, guid: 25d0e08ecd4f8ef42acbb21c2c297b80, type: 3}
      propertyPath: m_LocalPosition.z
      value: -1110.7668
      objectReference: {fileID: 0}
    - target: {fileID: 9053093336708988606, guid: 25d0e08ecd4f8ef42acbb21c2c297b80, type: 3}
      propertyPath: m_LocalRotation.x
      value: 0
      objectReference: {fileID: 0}
    - target: {fileID: 9053093336708988606, guid: 25d0e08ecd4f8ef42acbb21c2c297b80, type: 3}
      propertyPath: m_LocalRotation.y
      value: 0
      objectReference: {fileID: 0}
    - target: {fileID: 9053093336708988606, guid: 25d0e08ecd4f8ef42acbb21c2c297b80, type: 3}
      propertyPath: m_LocalRotation.z
      value: 0
      objectReference: {fileID: 0}
    - target: {fileID: 9053093336708988606, guid: 25d0e08ecd4f8ef42acbb21c2c297b80, type: 3}
      propertyPath: m_LocalRotation.w
      value: 1
      objectReference: {fileID: 0}
    - target: {fileID: 9053093336708988606, guid: 25d0e08ecd4f8ef42acbb21c2c297b80, type: 3}
      propertyPath: m_RootOrder
      value: 0
      objectReference: {fileID: 0}
    - target: {fileID: 9053093336708988606, guid: 25d0e08ecd4f8ef42acbb21c2c297b80, type: 3}
      propertyPath: m_LocalEulerAnglesHint.x
      value: 0
      objectReference: {fileID: 0}
    - target: {fileID: 9053093336708988606, guid: 25d0e08ecd4f8ef42acbb21c2c297b80, type: 3}
      propertyPath: m_LocalEulerAnglesHint.y
      value: 0
      objectReference: {fileID: 0}
    - target: {fileID: 9053093336708988606, guid: 25d0e08ecd4f8ef42acbb21c2c297b80, type: 3}
      propertyPath: m_LocalEulerAnglesHint.z
      value: 0
      objectReference: {fileID: 0}
    - target: {fileID: 9053093336708988607, guid: 25d0e08ecd4f8ef42acbb21c2c297b80, type: 3}
      propertyPath: m_audioClip
      value: 
      objectReference: {fileID: 8300000, guid: c01ea709e2322204c8672f70c389c288, type: 3}
    m_RemovedComponents: []
  m_SourcePrefab: {fileID: 100100000, guid: 25d0e08ecd4f8ef42acbb21c2c297b80, type: 3}
